^D:\AN_III\SEM2\PI\PROJECT\OPENCVAPPLICATION-VS2017_OCV340_BASIC\STDAFX.CPP
/c /IOPENCV/INCLUDE /ZI /JMC /nologo /W3 /WX- /diagnostics:column /sdl /Od /D _DEBUG /D _CONSOLE /D _CRT_SECURE_NO_WARNINGS /D _MBCS /Gm- /EHsc /RTC1 /MDd /GS /fp:precise /Zc:wchar_t /Zc:forScope /Zc:inline /Yc"stdafx.h" /Fp"X64\DEBUG\OPENCVAPPLICATION.PCH" /Fo"X64\DEBUG\\" /Fd"X64\DEBUG\VC143.PDB" /external:W3 /Gd /TP /FC D:\AN_III\SEM2\PI\PROJECT\OPENCVAPPLICATION-VS2017_OCV340_BASIC\STDAFX.CPP
^D:\AN_III\SEM2\PI\PROJECT\OPENCVAPPLICATION-VS2017_OCV340_BASIC\COMMON.CPP
/c /IOPENCV/INCLUDE /ZI /JMC /nologo /W3 /WX- /diagnostics:column /sdl /Od /D _DEBUG /D _CONSOLE /D _CRT_SECURE_NO_WARNINGS /D _MBCS /Gm- /EHsc /RTC1 /MDd /GS /fp:precise /Zc:wchar_t /Zc:forScope /Zc:inline /Yu"stdafx.h" /Fp"X64\DEBUG\OPENCVAPPLICATION.PCH" /Fo"X64\DEBUG\\" /Fd"X64\DEBUG\VC143.PDB" /external:W3 /Gd /TP /FC D:\AN_III\SEM2\PI\PROJECT\OPENCVAPPLICATION-VS2017_OCV340_BASIC\COMMON.CPP
^D:\AN_III\SEM2\PI\PROJECT\OPENCVAPPLICATION-VS2017_OCV340_BASIC\OPENCVAPPLICATION.CPP
/c /IOPENCV/INCLUDE /ZI /JMC /nologo /W3 /WX- /diagnostics:column /sdl /Od /D _DEBUG /D _CONSOLE /D _CRT_SECURE_NO_WARNINGS /D _MBCS /Gm- /EHsc /RTC1 /MDd /GS /fp:precise /Zc:wchar_t /Zc:forScope /Zc:inline /Yu"stdafx.h" /Fp"X64\DEBUG\OPENCVAPPLICATION.PCH" /Fo"X64\DEBUG\\" /Fd"X64\DEBUG\VC143.PDB" /external:W3 /Gd /TP /FC D:\AN_III\SEM2\PI\PROJECT\OPENCVAPPLICATION-VS2017_OCV340_BASIC\OPENCVAPPLICATION.CPP
